Lab 1 Shaping Data • psyc7709Lab
…
Note, I switch to using a tibble here instead of a data.frame.

subjects <- rep(1:10, each = 50)
room <- rep(c("Noisy","Quiet"), each = 50*5)
words <- rep(1:50, 10)
correct <- rbinom(500,1,.5)

recall_data <- tibble(subjects,
                      room,
                      words,
                      correct)

recall_data
#> # A tibble: 500 x 4
#>    subjects room  words correct
#>       <int> <chr> <int>   <int>
#>  1        1 Noisy     1       0
#>  2        1 Noisy     2       0
#>  3        1 Noisy     3       0
#>  4        1 Noisy     4       0
#>  5        1 Noisy     5       1
#>  6        1 Noisy     6       0
#>  7        1 Noisy     7       0
#>  8        1 Noisy     8       1
#>  9        1 Noisy     9       0
#> 10        1 Noisy    10       1
#> # … with 490 more rows
…
Simple linear regression

100 people write down their height in centimeters, and the day of the month they were born. Conduct a linear regression to see if day of month explains variation in height.

people <- tibble(height = rnorm(100, 90, 10),
                 day = sample(1:31, 100, replace=TRUE))

people
#> # A tibble: 100 x 2
#>    height   day
#>     <dbl> <int>
#>  1  120.      2
#>  2   84.0     2
#>  3   79.2     3
#>  4   86.8     9
#>  5   81.8    14
#>  6   78.3    19
#>  7  105.     28
#>  8   97.0    18
#>  9   84.4    24
#> 10   80.3    15
#> # … with 90 more rows
…
weight_data <- tibble(subject_number = rep(1:25, each=5*7),
                          day = rep(rep(c("S","M","T","W","Th","F","Sa"),
                                      each = 5), 25),
                          measurement_number = rep(1:5, 7*25),
                          weights = rnorm(25*5*7, 100, 25))

As we will see in later labs on ANOVA, the analysis can be performed in one-line with the aov function

subject_means <- weight_data %>%
  group_by(subject_number,day) %>%
  summarize(mean_weight = mean(weights), .groups="drop")

subject_means
#> # A tibble: 175 x 3
#>    subject_number day   mean_weight
#>             <int> <chr>       <dbl>
#>  1              1 F           113. 
#>  2              1 M            85.1
#>  3              1 S            96.1
#>  4              1 Sa           98.5
#>  5              1 T            75.6
#>  6              1 Th           84.0
#>  7              1 W           104. 
#>  8              2 F           109. 
#>  9              2 M            73.2
#> 10              2 S           101. 
#> # … with 165 more rows
…
And, as we will also learn in class, ANOVA and Linear Regression are fundamentally the same analysis, so we could also use the lm function and treat the analysis as a regression.

subject_means <- weight_data %>%
  group_by(subject_number,day) %>%
  summarize(mean_weight = mean(weights), .groups="drop")

subject_means
#> # A tibble: 175 x 3
#>    subject_number day   mean_weight
#>             <int> <chr>       <dbl>
#>  1              1 F           113. 
#>  2              1 M            85.1
#>  3              1 S            96.1
#>  4              1 Sa           98.5
#>  5              1 T            75.6
#>  6              1 Th           84.0
#>  7              1 W           104. 
#>  8              2 F           109. 
#>  9              2 M            73.2
#> 10              2 S           101. 
#> # … with 165 more rows
…
weight_data <- tibble(subject_number = rep(1:25, each=4*7),
                          day = rep(rep(c("S","M","T","W","Th","F","Sa"),
                                      each = 4), 25),
                          time_of_day = rep(c("Morning","Morning",
                                              "Evening","Evening"),7*25),
                          measurement_number = rep(rep(1:2, 2), 7*25),
                          weights = rnorm(25*4*7, 100, 25))

subject_means <- weight_data %>%
  group_by(subject_number,day, time_of_day) %>%
  summarize(mean_weight = mean(weights), .groups="drop")

subject_means
#> # A tibble: 350 x 4
#>    subject_number day   time_of_day mean_weight
#>             <int> <chr> <chr>             <dbl>
#>  1              1 F     Evening           109. 
#>  2              1 F     Morning            84.2
#>  3              1 M     Evening            92.9
#>  4              1 M     Morning            82.9
#>  5              1 S     Evening            88.8
#>  6              1 S     Morning           101. 
#>  7              1 Sa    Evening            98.1
#>  8              1 Sa    Morning           105. 
#>  9              1 T     Evening           105. 
#> 10              1 T     Morning           102. 
#> # … with 340 more rows
…
Just like we can treat a one-way ANOVA as a regression, we can also treat a Factorial ANOVA as a multiple regression:

subject_means <- weight_data %>%
  group_by(subject_number,day, time_of_day) %>%
  summarize(mean_weight = mean(weights), .groups="drop")

subject_means$day <-as.factor(subject_means$day)
subject_means$time_of_day <-as.factor(subject_means$time_of_day)

subject_means
#> # A tibble: 350 x 4
#>    subject_number day   time_of_day mean_weight
#>             <int> <fct> <fct>             <dbl>
#>  1              1 F     Evening           109. 
#>  2              1 F     Morning            84.2
#>  3              1 M     Evening            92.9
#>  4              1 M     Morning            82.9
#>  5              1 S     Evening            88.8
#>  6              1 S     Morning           101. 
#>  7              1 Sa    Evening            98.1
#>  8              1 Sa    Morning           105. 
#>  9              1 T     Evening           105. 
#> 10              1 T     Morning           102. 
#> # … with 340 more rows
…
